<?xml version="1.0" encoding="utf-8"?>
<COLLADA version="1.4.0" xmlns="http://www.collada.org/2005/11/COLLADASchema">
	<asset>
		<contributor>
			<author>Illusoft Collada 1.4.0 plugin for Blender - http://colladablender.illusoft.com</author>
			<authoring_tool>Blender v:249 - Illusoft Collada Exporter v:0.3.161</authoring_tool>
			<comments></comments>
			<copyright></copyright>
			<source_data>file://C://</source_data>
		</contributor>
		<created>2010-12-03T13:45:50.004000</created>
		<modified>2010-12-03T13:45:50.004000</modified>
		<unit meter="0.01" name="centimeter"/>
		<up_axis>Z_UP</up_axis>
	</asset>
	<library_effects>
		<effect id="Material-fx" name="Material-fx">
			<profile_COMMON>
				<technique sid="blender">
					<phong>
						<emission>
							<color>0.00000 0.00000 0.00000 1</color>
						</emission>
						<ambient>
							<color>0.40000 0.40000 0.40000 1</color>
						</ambient>
						<diffuse>
							<color>0.80000 0.80000 0.80000 1</color>
						</diffuse>
						<specular>
							<color>0.50000 0.50000 0.50000 1</color>
						</specular>
						<shininess>
							<float>12.5</float>
						</shininess>
						<reflective>
							<color>1.00000 1.00000 1.00000 1</color>
						</reflective>
						<reflectivity>
							<float>0.0</float>
						</reflectivity>
						<transparent>
							<color>1 1 1 1</color>
						</transparent>
						<transparency>
							<float>0.0</float>
						</transparency>
					</phong>
				</technique>
			</profile_COMMON>
		</effect>
	</library_effects>
	<library_materials>
		<material id="Material" name="Material">
			<instance_effect url="#Material-fx"/>
		</material>
	</library_materials>
	<library_geometries>
		<geometry id="Cube_001" name="Cube_001">
			<mesh>
				<source id="Cube_001-Position">
					<float_array count="24" id="Cube_001-Position-array">1.00000 1.00000 -1.00000 1.00000 -1.00000 -1.00000 -1.00000 -1.00000 -1.00000 -1.00000 1.00000 -1.00000 1.00000 1.00000 1.00000 1.00000 -1.00000 1.00000 -1.00000 -1.00000 1.00000 -1.00000 1.00000 1.00000</float_array>
					<technique_common>
						<accessor count="8" source="#Cube_001-Position-array" stride="3">
							<param type="float" name="X"></param>
							<param type="float" name="Y"></param>
							<param type="float" name="Z"></param>
						</accessor>
					</technique_common>
				</source>
				<source id="Cube_001-Normals">
					<float_array count="18" id="Cube_001-Normals-array">0.00000 0.00000 -1.00000 0.00000 -0.00000 1.00000 1.00000 -0.00000 0.00000 -0.00000 -1.00000 -0.00000 -1.00000 0.00000 -0.00000 0.00000 1.00000 0.00000</float_array>
					<technique_common>
						<accessor count="6" source="#Cube_001-Normals-array" stride="3">
							<param type="float" name="X"></param>
							<param type="float" name="Y"></param>
							<param type="float" name="Z"></param>
						</accessor>
					</technique_common>
				</source>
				<vertices id="Cube_001-Vertex">
					<input semantic="POSITION" source="#Cube_001-Position"/>
				</vertices>
				<polygons count="6" material="Material">
					<input offset="0" semantic="VERTEX" source="#Cube_001-Vertex"/>
					<input offset="1" semantic="NORMAL" source="#Cube_001-Normals"/>
					<p>0 0 1 0 2 0 3 0</p>
					<p>4 1 7 1 6 1 5 1</p>
					<p>0 2 4 2 5 2 1 2</p>
					<p>1 3 5 3 6 3 2 3</p>
					<p>2 4 6 4 7 4 3 4</p>
					<p>4 5 0 5 3 5 7 5</p>
				</polygons>
			</mesh>
		</geometry>
	</library_geometries>
	<library_visual_scenes>
		<visual_scene id="Scene" name="Scene">
			<node layer="L1" id="Cube" name="Cube">
				<translate sid="translate">0.00000 0.00000 0.00000</translate>
				<rotate sid="rotateZ">0 0 1 0.00000</rotate>
				<rotate sid="rotateY">0 1 0 -0.00000</rotate>
				<rotate sid="rotateX">1 0 0 0.00000</rotate>
				<scale sid="scale">1.00000 1.00000 1.00000</scale>
				<instance_geometry url="#Cube_001">
					<bind_material>
						<technique_common>
							<instance_material symbol="Material" target="#Material">
								<bind_vertex_input input_semantic="TEXCOORD" input_set="1" semantic="CHANNEL1"/>
							</instance_material>
						</technique_common>
					</bind_material>
				</instance_geometry>
			</node>
		</visual_scene>
	</library_visual_scenes>
	<scene>
		<instance_visual_scene url="#Scene"/>
	</scene>
</COLLADA>